MOLB 7950 - Bootcamp: Stats class 3
…
# A tibble: 2 x 5
  term            estimate std.error statistic   p.value
  <chr>              <dbl>     <dbl>     <dbl>     <dbl>
1 (Intercept)        14.6      0.363      40.0 1.48e-250
2 tot_cholesterol     1.85     0.116      16.0 8.92e- 54

chol_intercept <- tidy(fit_WvC)[1, 2]

chol_slope <- tidy(fit_WvC)[2, 2]
# for every 1 unit increase in cholesterol there is a 1.85 unit increase weight

# add residuals and other information
augment(fit_WvC)

# A tibble: 1,782 x 8
   weight tot_cholesterol .fitted .resid     .hat .sigma     .cooksd .std.resid
    <dbl>           <dbl>   <dbl>  <dbl>    <dbl>  <dbl>       <dbl>      <dbl>
 1   20.3            3.01    20.1  0.171 0.000566   3.12 0.000000846     0.0547
 2   16.1            2.46    19.1 -3.01  0.00107    3.12 0.000501       -0.965 
 3   19.5            3.57    21.2 -1.67  0.000906   3.12 0.000129       -0.534 
 4   22.2            2.61    19.4  2.81  0.000853   3.12 0.000347        0.901 
 5   17.3            2.04    18.3 -1.03  0.00203    3.12 0.000111       -0.331 
 6   18.1            2.86    19.9 -1.75  0.000622   3.12 0.0000981      -0.561 
 7   25.6            3.22    20.5  5.08  0.000592   3.12 0.000786        1.63  
 8   18.6            3.47    21.0 -2.38  0.000782   3.12 0.000228       -0.763 
 9   23.1            3.35    20.8  2.34  0.000669   3.12 0.000189        0.750 
10   17.3            2.29    18.8 -1.50  0.00140    3.12 0.000161       -0.480 
# i 1,772 more rows
…
