MOLB 7950 – Stats Bootcamp - class 11
…
Now to real (messy!) data

We will use the Palmer Penguins dataset

penguins_raw

# A tibble: 344 × 17
   studyName `Sample Number` Species     Region Island Stage
   <chr>               <dbl> <chr>       <chr>  <chr>  <chr>
 1 PAL0708                 1 Adelie Pen… Anvers Torge… Adul…
 2 PAL0708                 2 Adelie Pen… Anvers Torge… Adul…
 3 PAL0708                 3 Adelie Pen… Anvers Torge… Adul…
 4 PAL0708                 4 Adelie Pen… Anvers Torge… Adul…
 5 PAL0708                 5 Adelie Pen… Anvers Torge… Adul…
 6 PAL0708                 6 Adelie Pen… Anvers Torge… Adul…
 7 PAL0708                 7 Adelie Pen… Anvers Torge… Adul…
 8 PAL0708                 8 Adelie Pen… Anvers Torge… Adul…
 9 PAL0708                 9 Adelie Pen… Anvers Torge… Adul…
10 PAL0708                10 Adelie Pen… Anvers Torge… Adul…
# ℹ 334 more rows
# ℹ 11 more variables: `Individual ID` <chr>,
#   `Clutch Completion` <chr>, `Date Egg` <date>,
#   `Culmen Length (mm)` <dbl>, `Culmen Depth (mm)` <dbl>,
#   `Flipper Length (mm)` <dbl>, `Body Mass (g)` <dbl>,
#   Sex <chr>, `Delta 15 N (o/oo)` <dbl>,
#   `Delta 13 C (o/oo)` <dbl>, Comments <chr>
…
