MOLB 7950 – Chromatin accessibility II
…
Chromatin accessibility around transcription start sites (TSSs)

Next, we’ll use two valr functions to expand the window of the reference point (bed_slop()) and then break those windows into evenly spaced intervals (bed_makewindows()).

yeast_tss |>
  bed_slop(genome, both = region_size_half) |>
  bed_makewindows(win_size = win_size)

# A tibble: 50,887 × 7
   chrom start   end name    score strand .win_id
   <chr> <int> <int> <chr>   <chr> <chr>    <int>
 1 chrII  9800  9810 YBL107C .     -            1
 2 chrII  9810  9820 YBL107C .     -            2
 3 chrII  9820  9830 YBL107C .     -            3
 4 chrII  9830  9840 YBL107C .     -            4
 5 chrII  9840  9850 YBL107C .     -            5
 6 chrII  9850  9860 YBL107C .     -            6
 7 chrII  9860  9870 YBL107C .     -            7
 8 chrII  9870  9880 YBL107C .     -            8
 9 chrII  9880  9890 YBL107C .     -            9
10 chrII  9890  9900 YBL107C .     -           10
# ℹ 50,877 more rows
…
Remember that win_coord is the same relative position for each TSS, so these numbers represent a composite signal a the same position across all TSS.

tss_meta_tbl <-
  select(acc_tbl, sample_type, tss_win_sum) |>
  unnest(cols = c(tss_win_sum)) |>
  summarize(
    win_mean = mean(win_signal, na.rm = TRUE),
    win_sd = sd(win_signal, na.rm = TRUE),
    .by = c(win_coord, sample_type)
  ) |>
  replace_na(list(win_mean = 0, win_sd = 0))

tss_meta_tbl

# A tibble: 604 × 4
   win_coord sample_type win_mean win_sd
       <dbl> <chr>          <dbl>  <dbl>
 1       750 MNase_Short     260.   301.
 2       740 MNase_Short     264.   243.
 3       730 MNase_Short     251.   218.
 4       720 MNase_Short     244.   205.
 5       710 MNase_Short     239.   231.
 6       700 MNase_Short     238.   247.
 7       690 MNase_Short     245.   231.
 8       680 MNase_Short     255.   219.
 9       670 MNase_Short     250.   282.
10       660 MNase_Short     281.   360.
# ℹ 594 more rows
…
Take a look at acc_tbl and think about how you might reorganize the following way:

rows contain the data for individual loci (i.e., each TSS)

columns are ordered positions relative to the TSS (i.e., most upstream to most downstream)

Heatmap of signals around TSSs

We’re going to plot a heatmap of the “MNase_Long” data. There are two ways to get these data

mnase_tbl <- acc_tbl[acc_tbl$sample_type == "MNase_Long", ]$tss_win_sum[[1]]

mnase_tbl

# A tibble: 50,887 × 6
   chrom start   end name    win_coord win_signal
   <chr> <int> <int> <chr>       <dbl>      <dbl>
 1 chrII  9800  9810 YBL107C       750       206.
 2 chrII  9810  9820 YBL107C       740       410.
 3 chrII  9820  9830 YBL107C       730       406.
 4 chrII  9830  9840 YBL107C       720       406.
 5 chrII  9840  9850 YBL107C       710       404.
 6 chrII  9850  9860 YBL107C       700       370.
 7 chrII  9860  9870 YBL107C       690       330.
 8 chrII  9870  9880 YBL107C       680       269.
 9 chrII  9880  9890 YBL107C       670       242.
10 chrII  9890  9900 YBL107C       660       276.
# ℹ 50,877 more rows

Or, using dplyr / tidyr:

mnase_tbl <-
  filter(
    acc_tbl,
    sample_type == "MNase_Long"
  ) |>
  select(-big_wig) |>
  unnest(cols = c(tss_win_sum))

mnase_tbl

# A tibble: 50,887 × 7
   sample_type chrom start   end name   win_coord win_signal
   <chr>       <chr> <int> <int> <chr>      <dbl>      <dbl>
 1 MNase_Long  chrII  9800  9810 YBL10…       750       206.
 2 MNase_Long  chrII  9810  9820 YBL10…       740       410.
 3 MNase_Long  chrII  9820  9830 YBL10…       730       406.
 4 MNase_Long  chrII  9830  9840 YBL10…       720       406.
 5 MNase_Long  chrII  9840  9850 YBL10…       710       404.
 6 MNase_Long  chrII  9850  9860 YBL10…       700       370.
 7 MNase_Long  chrII  9860  9870 YBL10…       690       330.
 8 MNase_Long  chrII  9870  9880 YBL10…       680       269.
 9 MNase_Long  chrII  9880  9890 YBL10…       670       242.
10 MNase_Long  chrII  9890  9900 YBL10…       660       276.
# ℹ 50,877 more rows
…
mnase_tbl_wide

Heatmap of signals around TSSs

# A tibble: 337 × 152
   name    `-750` `-740` `-730` `-720` `-710` `-700` `-690`
   <chr>    <dbl>  <dbl>  <dbl>  <dbl>  <dbl>  <dbl>  <dbl>
 1 YBL001C   81.9   81.9   81.9   81.9   81.9   81.9  166. 
 2 YBL002W  368.   370.   364.   353.   175.   353.   349. 
 3 YBL003C  229.   459.   457.   452.   459.   465.   457. 
 4 YBL004W  284.   267.   269.   137.   259.   229.   208. 
 5 YBL005W  299.   314.   164.   164.   326.   322.   314. 
 6 YBL006C  173.   173.   339.   330.   333.   332.   353. 
 7 YBL009W  265.   265.   261.   250.   225.   213.   229. 
 8 YBL010C  225.   455.   459.   446.   427.   404.   381. 
 9 YBL011W  368.   328.   255.   196.   160.   141.   156. 
10 YBL014C   68.6  139.   133.   124.   124.   131.    68.6
# ℹ 327 more rows
# ℹ 144 more variables: `-680` <dbl>, `-670` <dbl>,
#   `-660` <dbl>, `-650` <dbl>, `-640` <dbl>, `-630` <dbl>,
#   `-620` <dbl>, `-610` <dbl>, `-600` <dbl>, `-590` <dbl>,
#   `-580` <dbl>, `-570` <dbl>, `-560` <dbl>, `-550` <dbl>,
#   `-540` <dbl>, `-530` <dbl>, `-520` <dbl>, `-510` <dbl>,
#   `-500` <dbl>, `-490` <dbl>, `-480` <dbl>, …
…
