MOLB 7950 – Alternative splicing
…
psis

# A tibble: 12,134 × 11
      ID geneSymbol IJC_SAMPLE_1   SJC_SAMPLE_1 IJC_SAMPLE_2
   <dbl> <chr>      <chr>          <chr>        <chr>       
 1     5 Neil1      12,6,9,5       0,0,0,0      10,8,14,0   
 2     6 Wrap53     44,34,40,22    3,0,0,0      29,13,19,15 
 3     9 Zfp28      3,0,0,4        0,0,0,0      2,0,0,0     
 4    11 Pik3cd     18,5,1,3       0,0,0,0      3,7,10,2    
 5    17 Cd81       348,210,261,2… 0,0,0,0      231,166,135…
 6    21 Smarca4    136,107,135,78 0,0,1,0      107,132,95,…
 7    22 Smarca4    8,0,0,8        148,93,102,… 1,0,0,4     
 8    26 Map7d1     3,1,11,10      9,3,26,8     8,14,7,23   
 9    27 Map7d1     3,1,7,7        0,0,2,0      8,16,5,19   
10    28 Ubxn2a     62,70,49,38    1,4,4,0      51,54,52,20 
# ℹ 12,124 more rows
# ℹ 6 more variables: SJC_SAMPLE_2 <chr>, FDR <dbl>,
#   IncFormLen <dbl>, IncLevel1 <chr>, IncLevel2 <chr>,
#   IncLevelDifference <dbl>
…
psis

# A tibble: 12,134 × 23
      ID geneSymbol IJC_SAMPLE_11 IJC_SAMPLE_12
   <dbl> <chr>              <dbl>         <dbl>
 1     5 Neil1                 12             6
 2     6 Wrap53                44            34
 3     9 Zfp28                  3             0
 4    11 Pik3cd                18             5
 5    17 Cd81                 348           210
 6    21 Smarca4              136           107
 7    22 Smarca4                8             0
 8    26 Map7d1                 3             1
 9    27 Map7d1                 3             1
10    28 Ubxn2a                62            70
# ℹ 12,124 more rows
# ℹ 19 more variables: IJC_SAMPLE_13 <dbl>,
#   IJC_SAMPLE_14 <dbl>, SJC_SAMPLE_11 <dbl>,
#   SJC_SAMPLE_12 <dbl>, SJC_SAMPLE_13 <dbl>,
#   SJC_SAMPLE_14 <dbl>, IJC_SAMPLE_21 <dbl>,
#   IJC_SAMPLE_22 <dbl>, IJC_SAMPLE_23 <dbl>,
#   IJC_SAMPLE_24 <dbl>, SJC_SAMPLE_21 <dbl>, …
…
