MOLB 7950 – R Bootcamp - Day 2
…
Paths identified by here() can be fed to e.g. read_* functions.

read_tsv(here("data/syllabus.tsv"))

Rows: 35 Columns: 6
── Column specification ────────────────────────────────────
Delimiter: "\t"
chr  (5): block, topic, instructor, location, title
dttm (1): date

ℹ Use `spec()` to retrieve the full column specification for this data.
ℹ Specify the column types or set `show_col_types = FALSE` to quiet this message.

# A tibble: 35 × 6
   date                block topic instructor location title
   <dttm>              <chr> <chr> <chr>      <chr>    <chr>
 1 2025-08-25 00:00:00 Boot… R     Hesselber… AHSB 22… Intr…
 2 2025-08-26 00:00:00 Boot… R     Hesselber… AHSB 22… Tidy…
 3 2025-08-27 00:00:00 Boot… R     Hesselber… AHSB 22… dplyr
 4 2025-08-28 00:00:00 Boot… R     Hesselber… AHSB 22… ggpl…
 5 2025-08-29 00:00:00 Boot… R     Hesselber… AHSB 22… ggpl…
 6 2025-09-01 00:00:00 <NA>  <NA>  <NA>       <NA>     NO C…
 7 2025-09-02 00:00:00 Boot… R     Hesselber… AHSB 22… tidy…
 8 2025-09-03 00:00:00 Boot… R     Hesselber… AHSB 22… putt…
 9 2025-09-04 00:00:00 Boot… R     Hesselber… AHSB 22… putt…
10 2025-09-05 00:00:00 Boot… Stat… Mukherjee  AHSB 22… Stat…
# ℹ 25 more rows
…
