MOLB 7950 – Mapping chromatin structure and transactions
…
genes <- read_bed(
  valr_example("genes.hg19.chr22.bed.gz")
)

Note

You’ll also use read_bedgraph() and read_bigwig() on your problem set.

What is in snps and genes?

snps

# A tibble: 10,000 × 6
   chrom    start      end name        score strand
   <chr>    <int>    <int> <chr>       <chr> <chr> 
 1 chr22 16053247 16053248 rs587721086 0     +     
 2 chr22 16053443 16053444 rs80167676  0     +     
 3 chr22 16055964 16055965 rs587706951 0     +     
 4 chr22 16069373 16069374 rs2154787   0     +     
 5 chr22 16069782 16069783 rs1963212   0     +     
 6 chr22 16100513 16100514 rs8140563   0     +     
 7 chr22 16114622 16114623 rs558374111 0     +     
 8 chr22 16115181 16115182 rs567521927 0     +     
 9 chr22 16115377 16115378 rs538733846 0     +     
10 chr22 16121639 16121640 rs544560983 0     +     
# ℹ 9,990 more rows

genes

# A tibble: 732 × 6
   chrom    start      end name      score strand
   <chr>    <int>    <int> <chr>     <chr> <chr> 
 1 chr22 16150259 16193004 AK022914  8     -     
 2 chr22 16162065 16172265 LINC00516 3     +     
 3 chr22 16179617 16181004 BC017398  1     -     
 4 chr22 16239287 16239327 DQ590589  1     +     
 5 chr22 16240245 16240277 DQ573684  1     -     
 6 chr22 16240300 16240340 DQ595048  1     -     
 7 chr22 16241085 16241125 DQ590589  1     +     
 8 chr22 16242753 16242785 DQ573684  1     -     
 9 chr22 16243382 16243414 DQ573684  1     -     
10 chr22 16243447 16243487 DQ587539  1     -     
# ℹ 722 more rows
…
Let’s find and characterize intergenic SNPs. We’ll use the tools bed_substract() and bed_closest(). Take a look and their examples in the valr documentation to see what they do.

Here, we’ll ask the question: “Which SNPs are intergenic, and how far are they from the nearest gene?”

# find snps in intergenic regions
intergenic <- bed_subtract(snps, genes)

# find distance from intergenic snps to nearest gene
nearby <- bed_closest(intergenic, genes)

Take a look at the intergenic and nearby objects in the console.

intergenic

# A tibble: 4,786 × 6
   chrom    start      end name        score strand
   <chr>    <int>    <int> <chr>       <chr> <chr> 
 1 chr22 16053247 16053248 rs587721086 0     +     
 2 chr22 16053443 16053444 rs80167676  0     +     
 3 chr22 16055964 16055965 rs587706951 0     +     
 4 chr22 16069373 16069374 rs2154787   0     +     
 5 chr22 16069782 16069783 rs1963212   0     +     
 6 chr22 16100513 16100514 rs8140563   0     +     
 7 chr22 16114622 16114623 rs558374111 0     +     
 8 chr22 16115181 16115182 rs567521927 0     +     
 9 chr22 16115377 16115378 rs538733846 0     +     
10 chr22 16121639 16121640 rs544560983 0     +     
# ℹ 4,776 more rows

nearby

# A tibble: 4,798 × 13
   chrom  start.x    end.x name.x   score.x strand.x start.y
   <chr>    <int>    <int> <chr>    <chr>   <chr>      <int>
 1 chr22 16053247 16053248 rs58772… 0       +         1.62e7
 2 chr22 16053443 16053444 rs80167… 0       +         1.62e7
 3 chr22 16055964 16055965 rs58770… 0       +         1.62e7
 4 chr22 16069373 16069374 rs21547… 0       +         1.62e7
 5 chr22 16069782 16069783 rs19632… 0       +         1.62e7
 6 chr22 16100513 16100514 rs81405… 0       +         1.62e7
 7 chr22 16114622 16114623 rs55837… 0       +         1.62e7
 8 chr22 16115181 16115182 rs56752… 0       +         1.62e7
 9 chr22 16115377 16115378 rs53873… 0       +         1.62e7
10 chr22 16121639 16121640 rs54456… 0       +         1.62e7
# ℹ 4,788 more rows
# ℹ 6 more variables: end.y <int>, name.y <chr>,
#   score.y <chr>, strand.y <chr>, .overlap <int>,
#   .dist <int>

Interval manipulation

Now that you have overlaps and distances between SNPs and genes, you can go back to dplyr tools to generate reports.

nearby |>
  select(
    starts_with("name"),
    .overlap,
    .dist
  ) |>
  filter(abs(.dist) < 5000)

# A tibble: 1,047 × 4
   name.x      name.y   .overlap .dist
   <chr>       <chr>       <int> <int>
 1 rs530458610 P704P           0  2579
 2 rs2261631   P704P           0  -268
 3 rs570770556 POTEH           0  -913
 4 rs538163832 POTEH           0  -953
 5 rs190224195 POTEH           0 -1399
 6 rs2379966   DQ571479        0  4750
 7 rs142687051 DQ571479        0  3558
 8 rs528403095 DQ571479        0  3309
 9 rs555126291 DQ571479        0  2745
10 rs5747567   DQ571479        0 -1778
# ℹ 1,037 more rows
…
