MOLB 7950 – Stats Bootcamp - class 13
…
Collecting residuals and other information

add residuals and other information

b_WvC <- augment(fit_WvC, data = b)

b_WvC

# A tibble: 1,782 × 17
   subject_name calcium glucose sodium tot_cholesterol
   <chr>          <dbl>   <dbl>  <dbl>           <dbl>
 1 A048005080      1.97   12.2     123            3.01
 2 A048005112      2.11   11.0     133            2.46
 3 A048006555      1.71    5.97    119            3.57
 4 A048007096      2.49   10.6     148            2.61
 5 A048010273      2.14   11.9     131            2.04
 6 A048010371      2.16   10.6     134            2.86
 7 A048011287      2.29    9.62    146            3.22
 8 A048011554      1.69    9.82    117            3.47
 9 A048012562      1.84   11.0     121            3.35
10 A048013559      2.31    4.96    144            2.29
# ℹ 1,772 more rows
# ℹ 12 more variables: family <chr>, sex <chr>, age <dbl>,
#   cage_density <dbl>, litter <dbl>, weight <dbl>,
#   .fitted <dbl>, .resid <dbl>, .hat <dbl>, .sigma <dbl>,
#   .cooksd <dbl>, .std.resid <dbl>
…
