MOLB 7950 – Chromatin accessibility I
…
Fragment size distributions are informative

First, we will determine the fragment size distributions obtained from the two experiments. These sizes are the fingerprints of particles that were protecting nuclear DNA from digestion.

I have performed the alignment of paired-end reads and converted all reads into a bed file where each line of the bed file denotes a single fragment from start to end.

First, load the ATAC-seq reads:

atac_tbl <- read_bed(
  here("data/block-dna/yeast_atac_chrII.bed.gz"),
)

atac_tbl

# A tibble: 409,870 × 3
   chrom start   end
   <chr> <int> <int>
 1 chrII     0    42
 2 chrII     0    52
 3 chrII     0    71
 4 chrII     0    75
 5 chrII     0    82
 6 chrII     0    83
 7 chrII     0    83
 8 chrII     0    83
 9 chrII     0   122
10 chrII     0   135
# ℹ 409,860 more rows

Next, load the MNase reads.

mnase_tbl <- read_bed(
  here("data/block-dna/yeast_mnase_chrII.bed.gz")
)

mnase_tbl

# A tibble: 1,236,334 × 3
   chrom start   end
   <chr> <int> <int>
 1 chrII     1   228
 2 chrII     2    80
 3 chrII     3   226
 4 chrII     4    60
 5 chrII     4    66
 6 chrII     4    77
 7 chrII     4    81
 8 chrII     5    56
 9 chrII     5    60
10 chrII     5    60
# ℹ 1,236,324 more rows
…
Length distributions of chromatin-derived DNA fragments

For the MNase-seq BED file, you see that there are only three columns: chrom, start, and end.

Calculating fragment length is simple:

mutate(mnase_tbl, frag_len = end - start)

# A tibble: 1,236,334 × 4
   chrom start   end frag_len
   <chr> <int> <int>    <int>
 1 chrII     1   228      227
 2 chrII     2    80       78
 3 chrII     3   226      223
 4 chrII     4    60       56
 5 chrII     4    66       62
 6 chrII     4    77       73
 7 chrII     4    81       77
 8 chrII     5    56       51
 9 chrII     5    60       55
10 chrII     5    60       55
# ℹ 1,236,324 more rows

Let’s use this approach to examine the fragment length distribution.

First, we will combine the two data sets into a single tibble, adding a new column to indicate the type of experiment.

acc_tbl <-
  bind_rows(
    mutate(mnase_tbl, type = "mnase"),
    mutate(atac_tbl, type = "atac")
  )

acc_tbl

# A tibble: 1,646,204 × 4
   chrom start   end type 
   <chr> <int> <int> <chr>
 1 chrII     1   228 mnase
 2 chrII     2    80 mnase
 3 chrII     3   226 mnase
 4 chrII     4    60 mnase
 5 chrII     4    66 mnase
 6 chrII     4    77 mnase
 7 chrII     4    81 mnase
 8 chrII     5    56 mnase
 9 chrII     5    60 mnase
10 chrII     5    60 mnase
# ℹ 1,646,194 more rows
…
Autocorrelation

The density slot contains a vector of densities at base-pair resolution. We will use acf() to calculate the autocorrelation of these values, and will store the tidied result.

atac_acf_tbl <-
  acf(
    atac_frag_lens$density,
    lag.max = 40,
    plot = FALSE
  ) |>
  broom::tidy()

atac_acf_tbl

# A tibble: 41 × 2
     lag   acf
   <dbl> <dbl>
 1     0 1    
 2     1 0.975
 3     2 0.937
 4     3 0.916
 5     4 0.909
 6     5 0.902
 7     6 0.891
 8     7 0.882
 9     8 0.877
10     9 0.887
# ℹ 31 more rows
…
