…
```

```{r}
#| label: data-exploration-03

# Examine the structure of the data

```

# Part 1: Data Tidying (tidyr)

We want to create a table that looks like this:

```
# A tibble: 199,296 × 4
   systematic_name nutrient  rate exp_level
   <chr>           <fct>    <dbl>     <dbl>
 1 YPR204W         Glucose   0.05      1.17
 2 YPR204W         Glucose   0.1       1
 3 YPR204W         Glucose   0.15      0.86
 4 YPR204W         Glucose   0.2       0.77
 5 YPR204W         Glucose   0.25      0.53
 6 YPR204W         Glucose   0.3       0.3
 7 YPR204W         Ammonia   0.05      2.79
 8 YPR204W         Ammonia   0.1       2
 9 YPR204W         Ammonia   0.15      0.6
10 YPR204W         Ammonia   0.2       0.16
# ℹ 199,286 more rows
# ℹ Use `print(n = ...)` to see more rows
```
…
