…
## Question 1

Calculate summary statistics for the experiment.

1. Calculate the mean of the technical replicates within each group of genotype, time, gene, and biological replicate.

2. Calculate the mean and standard deviation of the biolgical replicates (which is the mean of technical replicates, above).

You should have a tibble that looks like this:

```
# A tibble: 36 × 5
   gt         time gene     bio_mean bio_sd
   <chr>     <int> <chr>       <dbl>  <dbl>
 1 RL-mutant     0 GAPDH       0.456  0.133
 2 RL-mutant     0 IFN-beta    3.54   0.203
 3 RL-mutant     4 GAPDH       1.65   0.432
 4 RL-mutant     4 IFN-beta   17.0    2.22 
 5 RL-mutant     8 GAPDH       2.09   1.17 
 6 RL-mutant     8 IFN-beta   31.8    3.29 
 7 RL-mutant    12 GAPDH       4.90   1.38 
 8 RL-mutant    12 IFN-beta   45.8    3.61 
 9 RL-mutant    24 GAPDH       8.50   2.49 
10 RL-mutant    24 IFN-beta   78.1    5.80 
# ℹ 26 more rows
# ℹ Use `print(n = ...)` to see more rows
```
…
