Problem Set 2 Key – MOLB 7950
…
ℹ Use `spec()` to retrieve the full column specification for this data.
ℹ Specify the column types or set `show_col_types = FALSE` to quiet this message.

Question 2

Explore the dataset. Is this dataset tidy? If not, why not?

This data frame is a subset (100 lines) of transcript-level gene expression data where transcript abundance was measured at two different time points of a certain treatment conducted in triplicates. The column names have the format of molecule_time_replicate

First, explore the structure of the dataset using some of the functions we learned in class. Try using glimpse(), summary(), and names() to understand the data structure.

x

# A tibble: 100 × 7
   ensembl_transcript_id        rna_0h_rep1 rna_0h_rep2 rna_0h_rep3 rna_14h_rep1
   <chr>                              <dbl>       <dbl>       <dbl>        <dbl>
 1 ENST00000327044.6_51_2298          243         322         303         177   
 2 ENST00000338591.7_360_2034          19          17          15           9   
 3 ENST00000379389.4_176_647           45          53          48          11   
 4 ENST00000379370.6_1158_6186         42          50          52          32   
 5 ENST00000379339.5_212_1352          17          19          25           3   
 6 ENST00000263741.11_1328_1496        27.5        33.7        36.3        22.5 
 7 ENST00000360001.10_285_1350        158         170.        171.        121   
 8 ENST00000263741.11_315_1338        148.        162.        158.        116.  
 9 ENST00000379198.3_138_1002          11          21          23           6   
10 ENST00000347370.6_475_1096          27.3        23.8        28.5         7.33
# ℹ 90 more rows
# ℹ 2 more variables: rna_14h_rep2 <dbl>, rna_14h_rep3 <dbl>
…
Create a new column for the values (use values_to = "count")

# Reshape the data so each row is one observation
x_long <-
  pivot_longer(
    x,
    cols = -ensembl_transcript_id, # everything except the ID column
    names_to = "condition", # new column for the condition names
    values_to = "count" # new column for the count values
  )

x_long

# A tibble: 600 × 3
   ensembl_transcript_id      condition    count
   <chr>                      <chr>        <dbl>
 1 ENST00000327044.6_51_2298  rna_0h_rep1    243
 2 ENST00000327044.6_51_2298  rna_0h_rep2    322
 3 ENST00000327044.6_51_2298  rna_0h_rep3    303
 4 ENST00000327044.6_51_2298  rna_14h_rep1   177
 5 ENST00000327044.6_51_2298  rna_14h_rep2   177
 6 ENST00000327044.6_51_2298  rna_14h_rep3   239
 7 ENST00000338591.7_360_2034 rna_0h_rep1     19
 8 ENST00000338591.7_360_2034 rna_0h_rep2     17
 9 ENST00000338591.7_360_2034 rna_0h_rep3     15
10 ENST00000338591.7_360_2034 rna_14h_rep1     9
# ℹ 590 more rows
…
Specify the delimiter character (delim = "_")

Provide the new column names (names = c("molecule", "timepoint", "replicate"))

x_tidy <-
  separate_wider_delim(
    x_long,
    condition,
    delim = "_",
    names = c("molecule", "timepoint", "replicate")
  )

x_tidy

# A tibble: 600 × 5
   ensembl_transcript_id      molecule timepoint replicate count
   <chr>                      <chr>    <chr>     <chr>     <dbl>
 1 ENST00000327044.6_51_2298  rna      0h        rep1        243
 2 ENST00000327044.6_51_2298  rna      0h        rep2        322
 3 ENST00000327044.6_51_2298  rna      0h        rep3        303
 4 ENST00000327044.6_51_2298  rna      14h       rep1        177
 5 ENST00000327044.6_51_2298  rna      14h       rep2        177
 6 ENST00000327044.6_51_2298  rna      14h       rep3        239
 7 ENST00000338591.7_360_2034 rna      0h        rep1         19
 8 ENST00000338591.7_360_2034 rna      0h        rep2         17
 9 ENST00000338591.7_360_2034 rna      0h        rep3         15
10 ENST00000338591.7_360_2034 rna      14h       rep1          9
# ℹ 590 more rows
…
Specify where the new column names come from (names_from = c(molecule, timepoint, replicate))

Specify where the values come from (values_from = count)

Specify how to combine the names (names_sep = "_")

# Going back to wide format
pivot_wider(
  x_tidy,
  names_from = c(molecule, timepoint, replicate),
  values_from = count,
  names_sep = "_"
)

# A tibble: 100 × 7
   ensembl_transcript_id        rna_0h_rep1 rna_0h_rep2 rna_0h_rep3 rna_14h_rep1
   <chr>                              <dbl>       <dbl>       <dbl>        <dbl>
 1 ENST00000327044.6_51_2298          243         322         303         177   
 2 ENST00000338591.7_360_2034          19          17          15           9   
 3 ENST00000379389.4_176_647           45          53          48          11   
 4 ENST00000379370.6_1158_6186         42          50          52          32   
 5 ENST00000379339.5_212_1352          17          19          25           3   
 6 ENST00000263741.11_1328_1496        27.5        33.7        36.3        22.5 
 7 ENST00000360001.10_285_1350        158         170.        171.        121   
 8 ENST00000263741.11_315_1338        148.        162.        158.        116.  
 9 ENST00000379198.3_138_1002          11          21          23           6   
10 ENST00000347370.6_475_1096          27.3        23.8        28.5         7.33
# ℹ 90 more rows
# ℹ 2 more variables: rna_14h_rep2 <dbl>, rna_14h_rep3 <dbl>
…
