MOLB 7950 - Problem Set Stats Bootcamp - class 15
…
n <- tibble(
  targets = sampled_targets,
  type = "null"
)

n |>
  arrange(-sampled_targets) |>
  top_n(10)

Selecting by type

# A tibble: 1,000 x 2
   targets type 
     <dbl> <chr>
 1      18 null 
 2      18 null 
 3      17 null 
 4      17 null 
 5      17 null 
 6      17 null 
 7      16 null 
 8      16 null 
 9      16 null 
10      16 null 
# i 990 more rows
…
