MOLB 7950 - DNA Block - Problem Set 21
…
filter(
  peak_calls_sig,
  chrom == "chrII" &
    start >= track_start &
    end <= track_end
)

# A tibble: 28 x 3
   chrom  start    end
   <chr>  <int>  <int>
 1 chrII 111281 111371
 2 chrII 116933 117055
 3 chrII 122242 122335
 4 chrII 124885 125083
 5 chrII 132274 132369
 6 chrII 135587 135638
 7 chrII 135696 136060
 8 chrII 137335 137424
 9 chrII 139151 139182
10 chrII 142981 143030
# i 18 more rows
…
