…
```

## Question 1 (4 points)

Calculate summary statistics for the experiment.

1. Calculate the mean of the technical replicates within each group of genotype, time, gene, and biological replicate.

2. Calculate the mean and standard deviation of the biolgical replicates (which is the mean of technical replicates, above).

You should have a tibble that looks like this:

```
# A tibble: 36 × 5
   gt         time gene     bio_mean bio_sd
   <chr>     <int> <chr>       <dbl>  <dbl>
 1 RL-mutant     0 GAPDH       0.444 0.0759
 2 RL-mutant     0 IFN-beta    3.32  0.188 
 3 RL-mutant     4 GAPDH       1.61  0.487 
 4 RL-mutant     4 IFN-beta   18.4   1.15  
 5 RL-mutant     8 GAPDH       3.25  1.06  
 6 RL-mutant     8 IFN-beta   32.2   1.82  
 7 RL-mutant    12 GAPDH       3.90  0.911 
 8 RL-mutant    12 IFN-beta   47.5   3.78  
 9 RL-mutant    24 GAPDH       7.93  3.41  
10 RL-mutant    24 IFN-beta   76.7   4.75  
# ℹ 26 more rows
# ℹ Use `print(n = ...)` to see more rows
```
…
