Exercises 8: Gene Expression Analysis with Tidyverse – MOLB 7950
…
Code
#|label: data-loading-02

# Load the Brauer gene expression data
url <- "https://github.com/rnabioco/molb-7950/raw/refs/heads/main/data/bootcamp/brauer_gene_exp_raw.tsv.gz"

Code
# Examine the structure of the data

3 Part 1: Data Tidying (tidyr)

We want to create a tibble that looks like this:

# A tibble: 199,296 × 4
   systematic_name nutrient  rate exp_level
   <chr>           <fct>    <dbl>     <dbl>
 1 YPR204W         Glucose   0.05      1.17
 2 YPR204W         Glucose   0.1       1
 3 YPR204W         Glucose   0.15      0.86
 4 YPR204W         Glucose   0.2       0.77
 5 YPR204W         Glucose   0.25      0.53
 6 YPR204W         Glucose   0.3       0.3
 7 YPR204W         Ammonia   0.05      2.79
 8 YPR204W         Ammonia   0.1       2
 9 YPR204W         Ammonia   0.15      0.6
10 YPR204W         Ammonia   0.2       0.16
# ℹ 199,286 more rows
# ℹ Use `print(n = ...)` to see more rows
…
This creates a tidy data frame of model coefficients

Code
# Fit linear models for each gene-nutrient combination
brauer_models_tbl <-
  brauer_tidy_tbl |>
  reframe(
    broom::tidy(lm(exp_level ~ rate)),
    .by = c(nutrient, systematic_name)
  )

The above should give you a tibble that looks like this:

# A tibble: 66,430 × 7
   nutrient  systematic_name term        estimate std.error statistic p.value
   <chr>     <chr>           <chr>          <dbl>     <dbl>     <dbl>   <dbl>
 1 Glucose   YNL049C         (Intercept)   -0.263    0.0441    -5.98  0.00394
 2 Glucose   YNL049C         rate           0.714    0.226      3.16  0.0343
 3 Ammonia   YNL049C         (Intercept)    0.153    0.247      0.619 0.569
 4 Ammonia   YNL049C         rate          -1.09     1.27      -0.862 0.437
 5 Phosphate YNL049C         (Intercept)   -0.465    0.161     -2.89  0.0444
 6 Phosphate YNL049C         rate           2.07     0.825      2.51  0.0657
 7 Sulfate   YNL049C         (Intercept)   -0.419    0.157     -2.67  0.0558
 8 Sulfate   YNL049C         rate           2.23     0.807      2.77  0.0503
 9 Leucine   YNL049C         (Intercept)    0.193    0.0313     6.16  0.00352
10 Leucine   YNL049C         rate          -0.177    0.161     -1.10  0.332
# ℹ 66,420 more rows
# ℹ Use `print(n = ...)` to see more rows
…
