MOLB 7950 - Exercises-05
…
Rows: 600 Columns: 5
-- Column specification --------------------------------------------------------
Delimiter: ","
chr (4): ensembl_transcript_id, type, time, replicate
dbl (1): count

i Use `spec()` to retrieve the full column specification for this data.
i Specify the column types or set `show_col_types = FALSE` to quiet this message.

# save to have smaller name
data <- data_transcript_exp_tidy
# examples of grouping by differently - type these into the console to see the difference
group_by(data, type)

# A tibble: 600 x 5
# Groups:   type [1]
   ensembl_transcript_id      type  time  replicate count
   <chr>                      <chr> <chr> <chr>     <dbl>
 1 ENST00000327044.6_51_2298  rna   0h    rep1        243
 2 ENST00000327044.6_51_2298  rna   0h    rep2        322
 3 ENST00000327044.6_51_2298  rna   0h    rep3        303
 4 ENST00000327044.6_51_2298  rna   14h   rep1        177
 5 ENST00000327044.6_51_2298  rna   14h   rep2        177
 6 ENST00000327044.6_51_2298  rna   14h   rep3        239
 7 ENST00000338591.7_360_2034 rna   0h    rep1         19
 8 ENST00000338591.7_360_2034 rna   0h    rep2         17
 9 ENST00000338591.7_360_2034 rna   0h    rep3         15
10 ENST00000338591.7_360_2034 rna   14h   rep1          9
# i 590 more rows

group_by(data, replicate)

# A tibble: 600 x 5
# Groups:   replicate [3]
   ensembl_transcript_id      type  time  replicate count
   <chr>                      <chr> <chr> <chr>     <dbl>
 1 ENST00000327044.6_51_2298  rna   0h    rep1        243
 2 ENST00000327044.6_51_2298  rna   0h    rep2        322
 3 ENST00000327044.6_51_2298  rna   0h    rep3        303
 4 ENST00000327044.6_51_2298  rna   14h   rep1        177
 5 ENST00000327044.6_51_2298  rna   14h   rep2        177
 6 ENST00000327044.6_51_2298  rna   14h   rep3        239
 7 ENST00000338591.7_360_2034 rna   0h    rep1         19
 8 ENST00000338591.7_360_2034 rna   0h    rep2         17
 9 ENST00000338591.7_360_2034 rna   0h    rep3         15
10 ENST00000338591.7_360_2034 rna   14h   rep1          9
# i 590 more rows

group_by(data, time)

# A tibble: 600 x 5
# Groups:   time [2]
   ensembl_transcript_id      type  time  replicate count
   <chr>                      <chr> <chr> <chr>     <dbl>
 1 ENST00000327044.6_51_2298  rna   0h    rep1        243
 2 ENST00000327044.6_51_2298  rna   0h    rep2        322
 3 ENST00000327044.6_51_2298  rna   0h    rep3        303
 4 ENST00000327044.6_51_2298  rna   14h   rep1        177
 5 ENST00000327044.6_51_2298  rna   14h   rep2        177
 6 ENST00000327044.6_51_2298  rna   14h   rep3        239
 7 ENST00000338591.7_360_2034 rna   0h    rep1         19
 8 ENST00000338591.7_360_2034 rna   0h    rep2         17
 9 ENST00000338591.7_360_2034 rna   0h    rep3         15
10 ENST00000338591.7_360_2034 rna   14h   rep1          9
# i 590 more rows

group_by(data, ensembl_transcript_id)

# A tibble: 600 x 5
# Groups:   ensembl_transcript_id [100]
   ensembl_transcript_id      type  time  replicate count
   <chr>                      <chr> <chr> <chr>     <dbl>
 1 ENST00000327044.6_51_2298  rna   0h    rep1        243
 2 ENST00000327044.6_51_2298  rna   0h    rep2        322
 3 ENST00000327044.6_51_2298  rna   0h    rep3        303
 4 ENST00000327044.6_51_2298  rna   14h   rep1        177
 5 ENST00000327044.6_51_2298  rna   14h   rep2        177
 6 ENST00000327044.6_51_2298  rna   14h   rep3        239
 7 ENST00000338591.7_360_2034 rna   0h    rep1         19
 8 ENST00000338591.7_360_2034 rna   0h    rep2         17
 9 ENST00000338591.7_360_2034 rna   0h    rep3         15
10 ENST00000338591.7_360_2034 rna   14h   rep1          9
# i 590 more rows
…
group_by(data, time) %>% summarise(count = mean(count, na.rm = TRUE))

# A tibble: 2 x 2
  time  count
  <chr> <dbl>
1 0h     185.
2 14h    103.

group_by(data, ensembl_transcript_id) %>% summarise(count = mean(count, na.rm = TRUE))

# A tibble: 100 x 2
   ensembl_transcript_id          count
   <chr>                          <dbl>
 1 ENST00000054650.8_159_876       8.39
 2 ENST00000054666.10_116_416    121.  
 3 ENST00000054668.5_220_418       3.75
 4 ENST00000234590.8_121_1423   7993.  
 5 ENST00000263741.11_1328_1496   29.4 
 6 ENST00000263741.11_315_1338   141.  
 7 ENST00000270708.11_75_1455     45.7 
 8 ENST00000288774.7_29_1067      16.1 
 9 ENST00000291386.3_370_895     134.  
10 ENST00000307896.10_39_753       8.39
# i 90 more rows

group_by(data, ensembl_transcript_id, time) %>% summarise(count = mean(count, na.rm = TRUE))

`summarise()` has grouped output by 'ensembl_transcript_id'. You can override
using the `.groups` argument.

# A tibble: 200 x 3
# Groups:   ensembl_transcript_id [100]
   ensembl_transcript_id        time    count
   <chr>                        <chr>   <dbl>
 1 ENST00000054650.8_159_876    0h       11.3
 2 ENST00000054650.8_159_876    14h       5.5
 3 ENST00000054666.10_116_416   0h      149  
 4 ENST00000054666.10_116_416   14h      93.7
 5 ENST00000054668.5_220_418    0h        0  
 6 ENST00000054668.5_220_418    14h       7.5
 7 ENST00000234590.8_121_1423   0h    10522. 
 8 ENST00000234590.8_121_1423   14h    5465. 
 9 ENST00000263741.11_1328_1496 0h       32.5
10 ENST00000263741.11_1328_1496 14h      26.3
# i 190 more rows
…
