MOLB 7950 - Exercises-03
…
# A tibble: 6 x 14
  name      height  mass hair_color skin_color eye_color birth_year sex   gender
  <chr>      <int> <dbl> <chr>      <chr>      <chr>          <dbl> <chr> <chr> 
1 Luke Sky~    172    77 blond      fair       blue            19   male  mascu~
2 C-3PO        167    75 <NA>       gold       yellow         112   none  mascu~
3 R2-D2         96    32 <NA>       white, bl~ red             33   none  mascu~
4 Darth Va~    202   136 none       white      yellow          41.9 male  mascu~
5 Leia Org~    150    49 brown      light      brown           19   fema~ femin~
6 Owen Lars    178   120 brown, gr~ light      blue            52   male  mascu~
# i 5 more variables: homeworld <chr>, species <chr>, films <list>,
#   vehicles <list>, starships <list>

starwars

# A tibble: 87 x 14
   name     height  mass hair_color skin_color eye_color birth_year sex   gender
   <chr>     <int> <dbl> <chr>      <chr>      <chr>          <dbl> <chr> <chr> 
 1 Luke Sk~    172    77 blond      fair       blue            19   male  mascu~
 2 C-3PO       167    75 <NA>       gold       yellow         112   none  mascu~
 3 R2-D2        96    32 <NA>       white, bl~ red             33   none  mascu~
 4 Darth V~    202   136 none       white      yellow          41.9 male  mascu~
 5 Leia Or~    150    49 brown      light      brown           19   fema~ femin~
 6 Owen La~    178   120 brown, gr~ light      blue            52   male  mascu~
 7 Beru Wh~    165    75 brown      light      blue            47   fema~ femin~
 8 R5-D4        97    32 <NA>       white, red red             NA   none  mascu~
 9 Biggs D~    183    84 black      light      brown           24   male  mascu~
10 Obi-Wan~    182    77 auburn, w~ fair       blue-gray       57   male  mascu~
# i 77 more rows
# i 5 more variables: homeworld <chr>, species <chr>, films <list>,
#   vehicles <list>, starships <list>
…
Pipes %>% allows different functions to be used together to create a workflow. x %>% f(y) turns into f(x, y)

Source: https://dplyr.tidyverse.org/

arrange - Syntax

arrange() to order rows by values of a column or columns (low to high). desc() orders high to low.

arrange(data = ..., <colname>)

arrange - Exercise 2

arrange(starwars, height) # default is to arrange in ascending order

# A tibble: 87 x 14
   name     height  mass hair_color skin_color eye_color birth_year sex   gender
   <chr>     <int> <dbl> <chr>      <chr>      <chr>          <dbl> <chr> <chr> 
 1 Yoda         66    17 white      green      brown            896 male  mascu~
 2 Ratts T~     79    15 none       grey, blue unknown           NA male  mascu~
 3 Wicket ~     88    20 brown      brown      brown              8 male  mascu~
 4 Dud Bolt     94    45 none       blue, grey yellow            NA male  mascu~
 5 R2-D2        96    32 <NA>       white, bl~ red               33 none  mascu~
 6 R4-P17       96    NA none       silver, r~ red, blue         NA none  femin~
 7 R5-D4        97    32 <NA>       white, red red               NA none  mascu~
 8 Sebulba     112    40 none       grey, red  orange            NA male  mascu~
 9 Gasgano     122    NA none       white, bl~ black             NA male  mascu~
10 Watto       137    NA black      blue, grey yellow            NA male  mascu~
# i 77 more rows
# i 5 more variables: homeworld <chr>, species <chr>, films <list>,
#   vehicles <list>, starships <list>

arrange(starwars, desc(height)) # arrange in descending order

# A tibble: 87 x 14
   name     height  mass hair_color skin_color eye_color birth_year sex   gender
   <chr>     <int> <dbl> <chr>      <chr>      <chr>          <dbl> <chr> <chr> 
 1 Yarael ~    264    NA none       white      yellow          NA   male  mascu~
 2 Tarfful     234   136 brown      brown      blue            NA   male  mascu~
 3 Lama Su     229    88 none       grey       black           NA   male  mascu~
 4 Chewbac~    228   112 brown      unknown    blue           200   male  mascu~
 5 Roos Ta~    224    82 none       grey       orange          NA   male  mascu~
 6 Grievous    216   159 none       brown, wh~ green, y~       NA   male  mascu~
 7 Taun We     213    NA none       grey       black           NA   fema~ femin~
 8 Rugor N~    206    NA none       green      orange          NA   male  mascu~
 9 Tion Me~    206    80 none       grey       black           NA   male  mascu~
10 Darth V~    202   136 none       white      yellow          41.9 male  mascu~
# i 77 more rows
# i 5 more variables: homeworld <chr>, species <chr>, films <list>,
#   vehicles <list>, starships <list>

arrange(starwars, height, mass) # arrange by multiple columns

# A tibble: 87 x 14
   name     height  mass hair_color skin_color eye_color birth_year sex   gender
   <chr>     <int> <dbl> <chr>      <chr>      <chr>          <dbl> <chr> <chr> 
 1 Yoda         66    17 white      green      brown            896 male  mascu~
 2 Ratts T~     79    15 none       grey, blue unknown           NA male  mascu~
 3 Wicket ~     88    20 brown      brown      brown              8 male  mascu~
 4 Dud Bolt     94    45 none       blue, grey yellow            NA male  mascu~
 5 R2-D2        96    32 <NA>       white, bl~ red               33 none  mascu~
 6 R4-P17       96    NA none       silver, r~ red, blue         NA none  femin~
 7 R5-D4        97    32 <NA>       white, red red               NA none  mascu~
 8 Sebulba     112    40 none       grey, red  orange            NA male  mascu~
 9 Gasgano     122    NA none       white, bl~ black             NA male  mascu~
10 Watto       137    NA black      blue, grey yellow            NA male  mascu~
# i 77 more rows
# i 5 more variables: homeworld <chr>, species <chr>, films <list>,
#   vehicles <list>, starships <list>
…
# View(filter(starwars, is.na(hair_color))) # if you want to look at the filtered data in a table without creating a new table

Most frequently used comparison operators are: >, <, >=, <=, == (equal), != (not equal), is.na(), !is.na(), and %in% (contained in a list).

filter(starwars, skin_color %in% c("light", "fair", "pale")) # using %in%

# A tibble: 33 x 14
   name     height  mass hair_color skin_color eye_color birth_year sex   gender
   <chr>     <int> <dbl> <chr>      <chr>      <chr>          <dbl> <chr> <chr> 
 1 Luke Sk~    172    77 blond      fair       blue            19   male  mascu~
 2 Leia Or~    150    49 brown      light      brown           19   fema~ femin~
 3 Owen La~    178   120 brown, gr~ light      blue            52   male  mascu~
 4 Beru Wh~    165    75 brown      light      blue            47   fema~ femin~
 5 Biggs D~    183    84 black      light      brown           24   male  mascu~
 6 Obi-Wan~    182    77 auburn, w~ fair       blue-gray       57   male  mascu~
 7 Anakin ~    188    84 blond      fair       blue            41.9 male  mascu~
 8 Wilhuff~    180    NA auburn, g~ fair       blue            64   male  mascu~
 9 Han Solo    180    80 brown      fair       brown           29   male  mascu~
10 Wedge A~    170    77 brown      fair       hazel           21   male  mascu~
# i 23 more rows
# i 5 more variables: homeworld <chr>, species <chr>, films <list>,
#   vehicles <list>, starships <list>

# can also store as a named vector and use %in% with the vector
color <- c("light", "fair", "pale")
filter(starwars, skin_color %in% color) # using %in%

# A tibble: 33 x 14
   name     height  mass hair_color skin_color eye_color birth_year sex   gender
   <chr>     <int> <dbl> <chr>      <chr>      <chr>          <dbl> <chr> <chr> 
 1 Luke Sk~    172    77 blond      fair       blue            19   male  mascu~
 2 Leia Or~    150    49 brown      light      brown           19   fema~ femin~
 3 Owen La~    178   120 brown, gr~ light      blue            52   male  mascu~
 4 Beru Wh~    165    75 brown      light      blue            47   fema~ femin~
 5 Biggs D~    183    84 black      light      brown           24   male  mascu~
 6 Obi-Wan~    182    77 auburn, w~ fair       blue-gray       57   male  mascu~
 7 Anakin ~    188    84 blond      fair       blue            41.9 male  mascu~
 8 Wilhuff~    180    NA auburn, g~ fair       blue            64   male  mascu~
 9 Han Solo    180    80 brown      fair       brown           29   male  mascu~
10 Wedge A~    170    77 brown      fair       hazel           21   male  mascu~
# i 23 more rows
# i 5 more variables: homeworld <chr>, species <chr>, films <list>,
#   vehicles <list>, starships <list>

Conditions can be combined using & (and), | (or).

filter(starwars, skin_color == "light" | eye_color == "brown") # using or

# A tibble: 25 x 14
   name     height  mass hair_color skin_color eye_color birth_year sex   gender
   <chr>     <int> <dbl> <chr>      <chr>      <chr>          <dbl> <chr> <chr> 
 1 Leia Or~    150  49   brown      light      brown           19   fema~ femin~
 2 Owen La~    178 120   brown, gr~ light      blue            52   male  mascu~
 3 Beru Wh~    165  75   brown      light      blue            47   fema~ femin~
 4 Biggs D~    183  84   black      light      brown           24   male  mascu~
 5 Han Solo    180  80   brown      fair       brown           29   male  mascu~
 6 Yoda         66  17   white      green      brown          896   male  mascu~
 7 Boba Fe~    183  78.2 black      fair       brown           31.5 male  mascu~
 8 Lando C~    177  79   black      dark       brown           31   male  mascu~
 9 Lobot       175  79   none       light      blue            37   male  mascu~
10 Arvel C~     NA  NA   brown      fair       brown           NA   male  mascu~
# i 15 more rows
# i 5 more variables: homeworld <chr>, species <chr>, films <list>,
#   vehicles <list>, starships <list>
…
select - Syntax

select extracts one or more columns from a table

select_if() to extract all columns of a particular type

select(data = ..., <colname>)  
select_if(data = ..., <condition>)

select - Exercise 4

select(starwars, hair_color)

# A tibble: 87 x 1
   hair_color   
   <chr>        
 1 blond        
 2 <NA>         
 3 <NA>         
 4 none         
 5 brown        
 6 brown, grey  
 7 brown        
 8 <NA>         
 9 black        
10 auburn, white
# i 77 more rows

select(starwars, -hair_color) # can also use not `!hair_color`

# A tibble: 87 x 13
   name      height  mass skin_color eye_color birth_year sex   gender homeworld
   <chr>      <int> <dbl> <chr>      <chr>          <dbl> <chr> <chr>  <chr>    
 1 Luke Sky~    172    77 fair       blue            19   male  mascu~ Tatooine 
 2 C-3PO        167    75 gold       yellow         112   none  mascu~ Tatooine 
 3 R2-D2         96    32 white, bl~ red             33   none  mascu~ Naboo    
 4 Darth Va~    202   136 white      yellow          41.9 male  mascu~ Tatooine 
 5 Leia Org~    150    49 light      brown           19   fema~ femin~ Alderaan 
 6 Owen Lars    178   120 light      blue            52   male  mascu~ Tatooine 
 7 Beru Whi~    165    75 light      blue            47   fema~ femin~ Tatooine 
 8 R5-D4         97    32 white, red red             NA   none  mascu~ Tatooine 
 9 Biggs Da~    183    84 light      brown           24   male  mascu~ Tatooine 
10 Obi-Wan ~    182    77 fair       blue-gray       57   male  mascu~ Stewjon  
# i 77 more rows
# i 4 more variables: species <chr>, films <list>, vehicles <list>,
#   starships <list>

select(starwars, hair_color, skin_color, eye_color)

# A tibble: 87 x 3
   hair_color    skin_color  eye_color
   <chr>         <chr>       <chr>    
 1 blond         fair        blue     
 2 <NA>          gold        yellow   
 3 <NA>          white, blue red      
 4 none          white       yellow   
 5 brown         light       brown    
 6 brown, grey   light       blue     
 7 brown         light       blue     
 8 <NA>          white, red  red      
 9 black         light       brown    
10 auburn, white fair        blue-gray
# i 77 more rows

select(starwars, hair_color:eye_color) # select using x:y columns

# A tibble: 87 x 3
   hair_color    skin_color  eye_color
   <chr>         <chr>       <chr>    
 1 blond         fair        blue     
 2 <NA>          gold        yellow   
 3 <NA>          white, blue red      
 4 none          white       yellow   
 5 brown         light       brown    
 6 brown, grey   light       blue     
 7 brown         light       blue     
 8 <NA>          white, red  red      
 9 black         light       brown    
10 auburn, white fair        blue-gray
# i 77 more rows

select(starwars, !(hair_color:eye_color)) # reverse selection using the not `!` operator

# A tibble: 87 x 11
   name    height  mass birth_year sex   gender homeworld species films vehicles
   <chr>    <int> <dbl>      <dbl> <chr> <chr>  <chr>     <chr>   <lis> <list>  
 1 Luke S~    172    77       19   male  mascu~ Tatooine  Human   <chr> <chr>   
 2 C-3PO      167    75      112   none  mascu~ Tatooine  Droid   <chr> <chr>   
 3 R2-D2       96    32       33   none  mascu~ Naboo     Droid   <chr> <chr>   
 4 Darth ~    202   136       41.9 male  mascu~ Tatooine  Human   <chr> <chr>   
 5 Leia O~    150    49       19   fema~ femin~ Alderaan  Human   <chr> <chr>   
 6 Owen L~    178   120       52   male  mascu~ Tatooine  Human   <chr> <chr>   
 7 Beru W~    165    75       47   fema~ femin~ Tatooine  Human   <chr> <chr>   
 8 R5-D4       97    32       NA   none  mascu~ Tatooine  Droid   <chr> <chr>   
 9 Biggs ~    183    84       24   male  mascu~ Tatooine  Human   <chr> <chr>   
10 Obi-Wa~    182    77       57   male  mascu~ Stewjon   Human   <chr> <chr>   
# i 77 more rows
# i 1 more variable: starships <list>

select(starwars, ends_with("color")) # select by specific conditions are met by column names: starts_with, ends_with, contains...

# A tibble: 87 x 3
   hair_color    skin_color  eye_color
   <chr>         <chr>       <chr>    
 1 blond         fair        blue     
 2 <NA>          gold        yellow   
 3 <NA>          white, blue red      
 4 none          white       yellow   
 5 brown         light       brown    
 6 brown, grey   light       blue     
 7 brown         light       blue     
 8 <NA>          white, red  red      
 9 black         light       brown    
10 auburn, white fair        blue-gray
# i 77 more rows

select_if(starwars, is.numeric) # select_if to return all columns with numeric values

# A tibble: 87 x 3
   height  mass birth_year
    <int> <dbl>      <dbl>
 1    172    77       19  
 2    167    75      112  
 3     96    32       33  
 4    202   136       41.9
 5    150    49       19  
 6    178   120       52  
 7    165    75       47  
 8     97    32       NA  
 9    183    84       24  
10    182    77       57  
# i 77 more rows
…
Source: Rstudio cheatsheets

mutate(data = ..., <newcolname> =  funs(<oldcolname>))
mutate(data = ..., <colname>, funs(x))

# using pipes! %>%
data %>% mutate(<colname>, funs(x)) # this is useful when you need to use multiple functions to act sequentially on a dataframe. Input becomes obvious by leading with it. 

mutate (& pipe %>%)- Exercise 5

# create a new column to display height in meters
starwars %>% mutate(height_m = height / 100) # using pipe to feed data into the function

# A tibble: 87 x 15
   name     height  mass hair_color skin_color eye_color birth_year sex   gender
   <chr>     <int> <dbl> <chr>      <chr>      <chr>          <dbl> <chr> <chr> 
 1 Luke Sk~    172    77 blond      fair       blue            19   male  mascu~
 2 C-3PO       167    75 <NA>       gold       yellow         112   none  mascu~
 3 R2-D2        96    32 <NA>       white, bl~ red             33   none  mascu~
 4 Darth V~    202   136 none       white      yellow          41.9 male  mascu~
 5 Leia Or~    150    49 brown      light      brown           19   fema~ femin~
 6 Owen La~    178   120 brown, gr~ light      blue            52   male  mascu~
 7 Beru Wh~    165    75 brown      light      blue            47   fema~ femin~
 8 R5-D4        97    32 <NA>       white, red red             NA   none  mascu~
 9 Biggs D~    183    84 black      light      brown           24   male  mascu~
10 Obi-Wan~    182    77 auburn, w~ fair       blue-gray       57   male  mascu~
# i 77 more rows
# i 6 more variables: homeworld <chr>, species <chr>, films <list>,
#   vehicles <list>, starships <list>, height_m <dbl>

# using the pipe to feed data into multiple functions sequentially
starwars %>%
  mutate(height_m = height / 100) %>% # this columns is always appended to the end of the table, by default
  select(name, height_m, height, everything()) # using select to rearrange columns

# A tibble: 87 x 15
   name   height_m height  mass hair_color skin_color eye_color birth_year sex  
   <chr>     <dbl>  <int> <dbl> <chr>      <chr>      <chr>          <dbl> <chr>
 1 Luke ~     1.72    172    77 blond      fair       blue            19   male 
 2 C-3PO      1.67    167    75 <NA>       gold       yellow         112   none 
 3 R2-D2      0.96     96    32 <NA>       white, bl~ red             33   none 
 4 Darth~     2.02    202   136 none       white      yellow          41.9 male 
 5 Leia ~     1.5     150    49 brown      light      brown           19   fema~
 6 Owen ~     1.78    178   120 brown, gr~ light      blue            52   male 
 7 Beru ~     1.65    165    75 brown      light      blue            47   fema~
 8 R5-D4      0.97     97    32 <NA>       white, red red             NA   none 
 9 Biggs~     1.83    183    84 black      light      brown           24   male 
10 Obi-W~     1.82    182    77 auburn, w~ fair       blue-gray       57   male 
# i 77 more rows
# i 6 more variables: gender <chr>, homeworld <chr>, species <chr>,
#   films <list>, vehicles <list>, starships <list>

# mutate allows you to refer to columns that you<e2><80><99>ve just created
starwars %>%
  mutate(
    height_m = height / 100,
    BMI = mass / (height_m^2)
  ) %>%
  select(name, BMI, everything())

# A tibble: 87 x 16
   name        BMI height  mass hair_color skin_color eye_color birth_year sex  
   <chr>     <dbl>  <int> <dbl> <chr>      <chr>      <chr>          <dbl> <chr>
 1 Luke Sky~  26.0    172    77 blond      fair       blue            19   male 
 2 C-3PO      26.9    167    75 <NA>       gold       yellow         112   none 
 3 R2-D2      34.7     96    32 <NA>       white, bl~ red             33   none 
 4 Darth Va~  33.3    202   136 none       white      yellow          41.9 male 
 5 Leia Org~  21.8    150    49 brown      light      brown           19   fema~
 6 Owen Lars  37.9    178   120 brown, gr~ light      blue            52   male 
 7 Beru Whi~  27.5    165    75 brown      light      blue            47   fema~
 8 R5-D4      34.0     97    32 <NA>       white, red red             NA   none 
 9 Biggs Da~  25.1    183    84 black      light      brown           24   male 
10 Obi-Wan ~  23.2    182    77 auburn, w~ fair       blue-gray       57   male 
# i 77 more rows
# i 7 more variables: gender <chr>, homeworld <chr>, species <chr>,
#   films <list>, vehicles <list>, starships <list>, height_m <dbl>
…
